<?xml version="1.0" encoding="UTF-8" standalone="no"?>
<svg xmlns="http://www.w3.org/2000/svg" version="1.1" viewBox="0 0 400 120">

	<defs>
		<mask id="text_mask">
    	<rect x="-400" width="400" height="120" fill="#FFF">
				<animate
					attributeName="x"
					dur="1000ms"
					fill="freeze"
					to="-270" />
			</rect>
		</mask>
	</defs>

	<g id="text" transform="scale(3.1, 3.1)">
		<path d="m 18.24,23.200001 v -6.88 h 0.96 c 0.815774,0 0.96,0.122635 0.96,0.816285 v 0.816285 l 1.112159,-0.848285 c 1.301472,-0.992681 2.973098,-1.116537 4.201986,-0.311339 1.053576,0.69033 2.031799,2.850652 2.031799,4.487054 0,1.636402 -0.978223,3.796724 -2.031799,4.487054 -1.13784,0.745541 -2.955554,0.680982 -4.072259,-0.144634 L 20.48,24.940841 v 2.569581 2.56958 h -1.12 -1.12 z m 6.25548,0.661285 c 0.314432,-0.479884 0.510234,-1.470451 0.510234,-2.581285 0,-2.322711 -0.635866,-3.361825 -2.053091,-3.3551 -0.567943,0.0027 -1.191066,0.110695 -1.384718,0.24 -1.245047,0.83134 -1.50361,4.260308 -0.424679,5.631945 0.900063,1.144246 2.623037,1.177366 3.352254,0.06444 z M 7.84,26.233179 C 6.1894166,25.990449 5.4338637,25.561962 4.2213424,24.180977 1.3236483,20.880685 2.3470578,14.89038 6.1440403,12.926884 7.247215,12.35641 10.328051,12.283312 11.68,12.795533 c 4.325844,1.63896 5.364052,8.710354 1.757248,11.968886 -0.7035,0.63557 -1.386677,1.161854 -1.51817,1.169519 C 11.787585,25.941603 11.104,26.05442 10.4,26.184643 9.696,26.314866 8.544,26.336707 7.84,26.233179 Z m 3.646086,-2.733746 c 2.089787,-1.75844 2.158052,-6.451105 0.121303,-8.3387 -0.988216,-0.915848 -3.5002165,-1.05538 -4.7115144,-0.261708 -0.9327581,0.611167 -1.7764909,2.621685 -1.77409,4.227452 0.0048,3.207349 1.5338452,5.193524 3.9982154,5.193524 1.026054,0 1.646695,-0.215241 2.366086,-0.820568 z m 21.945655,2.872473 c -0.171456,-0.04176 -0.685187,-0.157602 -1.141623,-0.257432 -3.204001,-0.700766 -4.097314,-6.432158 -1.375074,-8.822316 1.0486,-0.920684 1.800543,-1.123181 3.644956,-0.981582 1.896464,0.145595 3.516838,2.176093 3.518803,4.409425 l 0.0012,1.36 h -3.2 c -2.853142,0 -3.2,0.06165 -3.2,0.568798 0,0.312839 0.224165,0.888839 0.498144,1.28 0.611962,0.873695 2.820304,1.014532 3.271309,0.208628 0.198419,-0.354552 0.64784,-0.472364 1.525901,-0.4 L 38.22,23.840001 37.260928,24.909999 c -0.875805,0.977098 -2.801347,1.712232 -3.829187,1.461907 z M 35.84,19.911203 c 0,-1.843603 -2.624522,-2.761003 -3.661856,-1.28 -1.028302,1.468109 -0.70258,1.848798 1.581856,1.848798 1.779875,0 2.08,-0.08207 2.08,-0.568798 z m 31.774339,6.270844 C 66.319549,25.837522 65.6,24.823942 65.6,23.34458 c 0,-1.628453 0.981776,-2.422695 3.774256,-3.053317 2.281306,-0.515184 2.541366,-0.744896 2.111507,-1.86509 -0.259184,-0.675427 -2.770528,-0.69519 -3.325763,-0.02617 -0.434419,0.523442 -2.24,0.666796 -2.24,0.177844 0,-0.166185 0.332173,-0.68833 0.738163,-1.160322 0.8552,-0.994229 2.558967,-1.383874 4.681091,-1.070548 2.230666,0.329351 2.580746,1.000503 2.580746,4.947645 0,1.817045 0.140435,3.673092 0.31208,4.124549 0.298864,0.786075 0.263722,0.820832 -0.829958,0.820832 -0.872919,0 -1.181479,-0.150816 -1.309402,-0.64 -0.201011,-0.768665 -0.355952,-0.790565 -1.06343,-0.150308 -0.805508,0.728976 -2.25744,1.04035 -3.414951,0.732354 z m 3.567517,-2.253248 C 71.455834,23.537638 71.68,22.801612 71.68,22.293186 c 0,-0.88837 -0.045,-0.915969 -1.154163,-0.707889 C 68.471024,21.970783 67.84,22.333252 67.84,23.128081 c 0,1.025717 0.580726,1.51192 1.805856,1.51192 0.709731,0 1.195344,-0.22485 1.536,-0.711202 z M 79.36,26.233137 c -1.442214,-0.250635 -2.402416,-0.779964 -3.02359,-1.666813 -0.726541,-1.037285 -0.627527,-1.206323 0.706614,-1.206323 0.856464,0 1.318166,0.184369 1.602714,0.64 0.804144,1.287642 4.337161,0.603624 3.821606,-0.739891 -0.09034,-0.235423 -1.150448,-0.694709 -2.355798,-1.020635 -3.732967,-1.009393 -4.96122,-3.039032 -3.01616,-4.984089 1.693264,-1.693266 5.908608,-1.26145 6.927923,0.709688 l 0.473126,0.914927 h -1.089037 c -0.598966,0 -1.268297,-0.216 -1.487398,-0.48 -0.554813,-0.668508 -3.154035,-0.652125 -3.412534,0.02151 -0.283709,0.739333 0.175091,1.042114 2.634534,1.738639 3.537146,1.001737 4.57265,2.806084 2.768925,4.824802 -0.985453,1.102912 -2.692599,1.571133 -4.550925,1.248185 z m 11.351741,0.138769 c -0.171456,-0.04176 -0.685187,-0.157602 -1.141623,-0.257432 -3.204,-0.700766 -4.097315,-6.432158 -1.375075,-8.822316 1.048602,-0.920684 1.800544,-1.123181 3.644957,-0.981582 1.896464,0.145595 3.516838,2.176093 3.518803,4.409425 l 0.0012,1.36 h -3.2 c -2.853142,0 -3.2,0.06165 -3.2,0.568798 0,0.312839 0.224166,0.888839 0.498144,1.28 0.611962,0.873695 2.820304,1.014532 3.271309,0.208628 0.198419,-0.354552 0.64784,-0.472364 1.525901,-0.4 L 95.5,23.840001 94.540928,24.909999 c -0.875805,0.977098 -2.801347,1.712232 -3.829187,1.461907 z M 93.12,19.911203 c 0,-1.843603 -2.624522,-2.761003 -3.661856,-1.28 -1.028301,1.468109 -0.702579,1.848798 1.581856,1.848798 1.779875,0 2.08,-0.08207 2.08,-0.568798 z m 27.35174,6.460703 c -0.17146,-0.04176 -0.68519,-0.157602 -1.14162,-0.257432 -3.204,-0.700766 -4.09732,-6.432158 -1.37508,-8.822316 1.0486,-0.920684 1.80055,-1.123181 3.64496,-0.981582 1.89646,0.145595 3.51684,2.176093 3.5188,4.409425 l 0.001,1.36 h -3.2 c -2.85314,0 -3.2,0.06165 -3.2,0.568798 0,0.312839 0.22417,0.888839 0.49814,1.28 0.61197,0.873695 2.82031,1.014532 3.27131,0.208628 0.19842,-0.354552 0.64784,-0.472364 1.5259,-0.4 l 1.24465,0.102574 -0.95907,1.069998 c -0.87581,0.977098 -2.80135,1.712232 -3.82919,1.461907 z M 122.88,19.911203 c 0,-1.843603 -2.62452,-2.761003 -3.66186,-1.28 -1.0283,1.468109 -0.70258,1.848798 1.58186,1.848798 1.77988,0 2.08,-0.08207 2.08,-0.568798 z m -82.24,1.368798 v -4.96 h 0.96 c 0.810666,0 0.96,0.124444 0.96,0.8 0,0.867933 0.454227,1.060702 0.864099,0.366715 0.402583,-0.68164 1.553696,-1.166715 2.768691,-1.166715 2.634071,0 3.08721,0.890085 3.08721,6.064109 v 3.855891 h -1.12 -1.12 v -3.339168 c 0,-4.215523 -0.259811,-4.980832 -1.690918,-4.980832 -2.052314,0 -2.296276,0.465746 -2.416618,4.613586 l -0.107539,3.706414 H 41.732464 40.64 Z m 16.293293,4.633584 c -3.585047,-0.611241 -5.647194,-4.264032 -4.776083,-8.460135 0.405827,-1.954875 1.650937,-3.690954 3.2344,-4.509796 1.168348,-0.604176 4.539785,-0.598306 5.716025,0.01 1.013882,0.524298 2.252365,1.945202 2.252365,2.584123 0,0.226281 -0.434934,0.506947 -0.966525,0.623704 -0.811033,0.178133 -1.114825,0.05353 -1.888387,-0.774575 -0.775645,-0.83033 -1.159181,-0.986857 -2.41809,-0.986857 -1.981529,0 -3.174508,1.120974 -3.49952,3.288298 -0.575302,3.8364 0.773572,6.311702 3.43946,6.311702 1.198924,0 1.567968,-0.156633 2.234009,-0.948177 0.43881,-0.521497 0.84761,-1.095307 0.908445,-1.275133 0.07388,-0.218388 0.506326,-0.205329 1.302336,0.03933 l 1.191725,0.366284 -0.653386,1.148849 c -0.35936,0.631867 -0.999456,1.404417 -1.422432,1.716778 -0.966755,0.713932 -3.156032,1.121113 -4.654342,0.865655 z M 97.6,21.280001 v -4.96 h 1.12 c 1.007472,0 1.12,0.08809 1.12,0.87673 v 0.87673 l 0.81295,-0.87673 c 0.5842,-0.630032 1.12446,-0.87673 1.92,-0.87673 1.14257,0 1.25991,0.196994 0.90536,1.52 -0.15629,0.58318 -0.41934,0.72 -1.38427,0.72 -1.60048,0 -1.93404,0.802842 -1.93404,4.655057 v 3.024943 H 98.88 97.6 Z m 7.68,0 v -4.96 h 0.96 c 0.81067,0 0.96,0.124444 0.96,0.8 0,0.867933 0.45423,1.060702 0.8641,0.366715 0.40258,-0.68164 1.5537,-1.166715 2.76869,-1.166715 2.63407,0 3.08721,0.890085 3.08721,6.064109 v 3.855891 h -1.12 -1.12 v -3.339168 c 0,-4.215523 -0.25981,-4.980832 -1.69092,-4.980832 -2.05231,0 -2.29627,0.465746 -2.41662,4.613586 l -0.10754,3.706414 H 106.37246 105.28 Z" fill="#FF4C4C" mask="url(#text_mask)" />
	</g>

	<g id="truck" transform="translate(-195)">
		<rect x="10" y="25" width="180" height="75" fill="#FF4C4C" /><!--camion-->
		<rect x="155" y="20" width="20" height="5" fill="#4594FF" /><!--giro-->
		<rect x="20" y="40" width="55" height="35" fill="#FFDE4C" /><!--porte arrière-->
		<rect x="80" y="40" width="25" height="55" fill="#FFDE4C" /><!--porte arrière-->
		<rect x="50" y="80" width="25" height="15" fill="#FFDE4C" /><!--porte arrière-->

		<rect x="110" y="25" width="15" height="75" fill="#BBB" />
		<rect x="112.5" y="25" width="10" height="7" fill="#FF4C4C" />
		<rect x="112.5" y="34.5" width="10" height="7" fill="#FF4C4C" />
		<rect x="112.5" y="44" width="10" height="7" fill="#FF4C4C" />
		<rect x="112.5" y="53.5" width="10" height="7" fill="#FF4C4C" />
		<rect x="112.5" y="63" width="10" height="7" fill="#FF4C4C" />
		<rect x="112.5" y="72.5" width="10" height="7" fill="#FF4C4C" />
		<rect x="112.5" y="82" width="10" height="7" fill="#FF4C4C" />
		<rect x="112.5" y="91.5" width="10" height="7" fill="#FF4C4C" />

		<rect x="170" y="90" width="20" height="10" fill="#BBB" /><!--camion-->
		<rect x="130" y="40" width="20" height="20" fill="#4594FF" /><!--fenetre-->
		<rect x="155" y="40" width="25" height="25" fill="#4594FF" /><!--fenetre-->
		<rect x="185" y="40" width="5" height="30" fill="#4594FF" /><!--fenetre-->

		<circle cx="30" cy="95" r="15" fill="#000" />
		<circle cx="165" cy="95" r="15" fill="#000" />
		<circle cx="30" cy="95" r="10" fill="#BBB" />
		<circle cx="165" cy="95" r="10" fill="#BBB" />

		<animateTransform
			attributeName="transform"
			type="translate"
			dur="1000ms"
			fill="freeze"
			to="390" />
	</g>
</svg>
